【李 白】的搜索结果为：
{"code":200,"mes":"success","data":{"content":[{"id":"S9vGVX0BI85dbDEs9c13","title":"甲子初春即事六首  其三","author":{"name":"杨万里","time":"宋","desc":"杨万里（一一二七～一二○六），字廷秀，号诚斋，吉州吉水（今属江西）人。高宗绍兴二十四年（一一五四）进士，调赣州司户参军。历永州零陵丞、知隆兴府奉新县。孝宗乾道六年（一一七○），召为国子博士（本集卷一三三《国子博士告词》注），迁太常博士、将作少监。出知漳州，改常州。淳熙六年（一一七九），提举广东常平茶盐（同上书《广东提举告词》注），寻除本路提点刑狱。召为尚左郎官。十二年以地震应诏上书，擢东宫侍读。十四年，迁秘书少监（同上书《秘书少监告词》注）。十五年，因上疏驳洪迈太庙高宗室配飨议，出知筠州。光宗即位，召为秘书监。绍熙元年（一一九○），兼实录院检讨官，会孝宗日历成，宰臣令他人为序，遂以失职丐去，出为江东转运副使，权总领淮西江东军马钱粮。因论江南行铁钱不便，忤宰相意，改知赣州，未赴。宁宗即位，屡召屡辞。庆元五年（一一九九）致仕（同上书《通议大夫宝文阁待制致仕告词》注）。开禧二年卒，年八十。谥文节（《宋会要辑稿》礼五八之一○○）。有《诚斋集》、《易传》等传世。事见其子长孺撰墓志（清乾隆刊《杨文节公文集》卷末附）。《宋史》卷四三三有传。　杨万里诗四十二卷辞操一卷，以宋端平间刊本（原书藏日本东京宫内厅书陵部）为底本。校以宋淳熙、绍熙间递刻之《诚斋先生江湖集十四卷荆溪集十卷西归集四卷南海集八卷江西道院集五卷朝天续集八卷退休集十四卷》（简称宋递刻本，藏北京图书馆，原该共六十三卷，今残存六十卷）、影印清文渊阁《四库全书》本《诚斋集》（简称四库本）。参校明末毛氏汲古阁钞本《诚斋集》（简称汲古阁本，今藏上海图书馆）、清乾隆六十年吉水杨氏带经轩刊《杨文节公诗集》（简称杨本）。另从诸书辑得之集外诗，编为第四十四卷。"},"type":"诗","content":["径李浑秾白，山桃半淡红。","杏花红又白，非淡亦非秾。"],"createTime":"2021-11-16 12:58:02","updateTime":"2021-11-16 12:58:02","valid":true},{"id":"Dtu4VX0BI85dbDEsRlx9","title":"题棺木 二","author":{"name":"朱贞白","time":"唐","desc":""},"type":"诗","content":["一夜小园开似雪。","（《江湖小集》卷八绍嵩《江浙纪行集句诗》。","）（按：朱贞白，《全唐诗》卷八七○作李贞白。","《增修诗话总龟前集》卷二十引《谈苑》作李正白，「正」为讳改。","《类说》引作朱贞白。","今从《宋朝事实类苑》列目。","）。"],"createTime":"2021-11-16 13:00:09","updateTime":"2021-11-16 13:00:09","valid":true},{"id":"99vLVX0BI85dbDEsi_5H","title":"偈颂三十二首  其一六","author":{"name":"释宗演","time":"宋","desc":"释宗演，号遯庵，俗姓郑，福州（今属福建）人。住常州华藏寺。为南岳下十六世，径山宗杲禅师法嗣。《五灯会元》卷二○有传。　释宗演诗，据《续古尊宿语要》所收《遯庵演和尚语》等书所录，编为一卷。"},"type":"诗","content":["张侯白，李侯黑。","硬如绵，软如铁。","蓦路相逢两会家，临济未是白拈贼。"],"createTime":"2021-11-16 12:57:43","updateTime":"2021-11-16 12:57:43","valid":true},{"id":"YtqaVX0BI85dbDEsm1l4","title":"颂古五首  其二","author":{"name":"释道行","time":"宋","desc":"释道行（一○八九～一一五一），处州（今浙江丽水）人，俗姓叶。幼有出尘志，间从天宁微禅师游。年十九，礼普照觉印英禅师，得度。去参佛眼清远禅师，契悟。后辞省亲。高宗建炎二年（一一二八），徐康国知处州，请开法于寿宁。次迁法海天宁乌巨。绍兴十八年（一一四八），从知饶州陈璹请，至饶。二十一年卒，年六十三。称雪堂道行禅师。为南岳下十五世，龙门佛眼清远禅师法嗣。《嘉泰普灯录》卷一六、《五灯会元》卷二○有传。今录诗四十六首。"},"type":"诗","content":["不是风幡动，天生李老君。","出胎头上髪，寸寸白如银。"],"createTime":"2021-11-16 12:59:44","updateTime":"2021-11-16 12:59:44","valid":true},{"id":"89gnVX0BI85dbDEsKQXu","title":"以诗句咏梅 未害广平心铁似","author":{"name":"方蒙仲","time":"宋","desc":"方蒙仲（一二一四～一二六一），名澄孙，以字行，号乌山，侯官（今福建福州）人，寄居兴化（今福建仙游东北）。理宗淳祐七年（一二四七）进士（《淳熙三山志》卷三二），调邵武军教授。历通判泉州，召为秘书丞。不附贾似道，景定初出知邵武军（明嘉靖《邵武府志》卷四）。二年卒，年四十八。有《䌹锦小稿》，已佚。事见《后村大全集》卷一六《方秘书蒙仲墓志铭》、《闽中理学渊源考》卷九《秘书方蒙仲先生澄孙》。　方蒙仲诗，据《永乐大典》、《诗渊》等书所录，编为一卷。"},"type":"诗","content":["白叟醉杨柳，韩翁忆李桃。","便令铁心者，其柰玉颜何。"],"createTime":"2021-11-16 12:58:43","updateTime":"2021-11-16 12:58:43","valid":true},{"id":"C9u3VX0BI85dbDEs-lWG","title":"悼故妓","author":{"name":"李播","time":"唐","desc":"李播，登元和进士第，以郎中典蕲州。诗一首。"},"type":"诗","content":["直应人世无风月，始是心中忘却时。","（见《白氏长庆集》卷三五《对酒有怀寄李十九郎中》自注引）（按：李十九即李播，从郁贤皓先生《唐刺史考》卷一三一《蕲州》考证。","）。"],"createTime":"2021-11-16 13:00:08","updateTime":"2021-11-16 13:00:08","valid":true},{"id":"hdgrVX0BI85dbDEsWTkM","title":"题李仲宾竹二幅","author":{"name":"方回","time":"宋","desc":"方回（一二二七～一三○七），字万里，一字渊甫，号虚谷，别号紫阳山人，歙县（今属安徽）人。早年以诗获知州魏克愚赏识，后随魏至永嘉，得制帅吕文德推荐。理宗景定三年（一二六二）进士，廷试原为甲科第一，为贾似道抑置乙科首，调随州教授。吕师夔提举江东，辟充干办公事，历江淮都大司干官、沿江制干，迁通判安吉州。时贾似道鲁港兵败，上书劾贾，召为太常簿。以劾王爚不可为相，出知建德府。恭帝德祐二年（一二七六），元兵至建德，出降，改授建德路总管兼府尹。元世祖至元十四年（一二七七）赴燕觐见，归后仍旧任。前后在郡七年，为婿及门生所讦，罢，不再仕。以诗游食元新贵间二十余年，也与宋遗民往还，长期寓居钱塘。元成宗大德十一年卒，年八十一。回诗初学张耒，晚慕陈师道、黄庭坚，鄙弃晚唐，自比陆游，有《桐江集》六十五卷（《剡源文集》卷八《桐江诗集序》），已佚。又有《桐江续集》，系元时罢官后所作，自序称二十卷，《千顷堂书目》作五十卷，今残存三十六卷。另有《瀛奎律髓》等行世。回以宋守土官腼颜仕元，以“大物既归周，裸士来殷商”（本集卷二五《送男存心如燕二月二十五日夜走笔古体》）开解，并谀元为“今日朝廷贞观同”（本集卷二四《送丘子正以能书入都……》），诚属可鄙，所以为周密《癸辛杂识》别集卷上所深诋。周斥其曾以梅花百咏谀贾似道，当为事实，集中有“向来世故未曾识，折腰此人（似道）觊斗升”（卷二三《三月二十日张君\uD86D\uDC10约饮王子由紫霞道院酒字为韵》），即为此事之证明。因此前人虽辨周密斥方回或有私愤，而回人品确不能称道。事见本集有关诗文，明弘治《徽州府志》卷七有传。　方回诗，以影印文渊阁《四库全书》本为底本。校以清抄《虚谷桐江续集》（四十八卷，简称清抄本，藏北京图书馆），两本卷次不同，非出一源。底本诗集外之诗、校本多出底本之诗及新辑集外诗，另编一卷。"},"type":"诗","content":["可是笔端如与可，亦须胸次有东坡。","自从举世夸崔白，似觉无人识李颇。"],"createTime":"2021-11-16 12:58:48","updateTime":"2021-11-16 12:58:48","valid":true},{"id":"EtvLVX0BI85dbDEsOfu4","title":"再次赠张学录韵十诗  其六","author":{"name":"陈造","time":"宋","desc":"陈造（一一三三～一二○三），字唐卿，高邮（今属江苏）人。孝宗淳熙二年（一一七五）进士，调太平州繁昌尉。历平江府教授，知明州定海县，通判房州并权知州事。房州秩满，为浙西路安抚司参议，改淮南西路安抚司参议。自以转辗州县幕僚，无补于世，置江湖乃宜，遂自号江湖长翁。宁宗嘉泰三年卒，年七十一。有《江湖长翁文集》四十卷，由子师文刊刻行世，陆游为之序，已佚。明神宗万历四十六年（一六一八）仁和李之藻获抄本，与秦观集同刊于高邮。事见本集卷首自序及元申屠駉《宋故淮南夫子陈公墓志铭》。　陈造诗，以明李之藻刊本为底本。校以影印文渊阁《四库全书》本（简称四库本）等。诗集外的作品另编一卷。"},"type":"诗","content":["李蔡下中尔，万目指骞腾。","何蕃头欲白，秋窗耿青灯。"],"createTime":"2021-11-16 12:58:06","updateTime":"2021-11-16 12:58:06","valid":true},{"id":"udzYVX0BI85dbDEsr7uD","title":"阀阅舞射柳蕤丸记・紫花儿序","author":{"name":"无名氏","time":"元","desc":""},"type":"曲","content":["不弱如秦白起坑卒破赵，不弱如燕乐毅奋勇收齐，不弱如唐李朔。"],"createTime":"2021-11-16 13:01:10","updateTime":"2021-11-16 13:01:10","valid":true},{"id":"5dqpVX0BI85dbDEslqxV","title":"使东川 骆口驿二首 一","author":{"name":"元稹","time":"唐","desc":"元稹，字微之，河南河内人。幼孤，母郑贤而文，亲授书传，举明经书判入等，补校书郎。元和初，应制策第一，除左拾遗，历监察御史。坐事贬江陵士曹参军，徙通州司马。自虢州长史征为膳部员外郎，拜祠部郎中、知制诰。召入翰林为中书舍人、承旨学士，进工部侍郎同平章事。未几罢相，出为同州刺史，改越州刺史，兼御史大夫、浙东观察使。太和初，入为尚书左丞、检校户部尚书，兼鄂州刺史、武昌军节度使。年五十三卒，赠尚书右仆射。稹自少与白居易倡和，当时言诗者称元白，号为元和体。其集与居易同名长庆，今编诗二十八卷。"},"type":"诗","content":["邮亭壁上数行字，崔李题名王白诗。","尽日无人共言语，不离墙下至行时。"],"createTime":"2021-11-16 12:59:52","updateTime":"2021-11-16 12:59:52","valid":true}],"pageable":{"sort":{"unsorted":true,"sorted":false,"empty":true},"pageNumber":0,"pageSize":10,"offset":0,"paged":true,"unpaged":false},"totalPages":30,"totalElements":291,"last":false,"sort":{"unsorted":true,"sorted":false,"empty":true},"numberOfElements":10,"first":true,"size":10,"number":0,"empty":false}}

【李白】的搜索结果为：
{"code":200,"mes":"success","data":{"content":[{"id":"sdckVX0BI85dbDEsWtdt","title":"偈颂一百二十三首  其三八","author":{"name":"释普度","time":"宋","desc":"释普度（一一九九～一二八○），号虚舟，俗姓史，江都（今江苏扬州）人。年十二，出家本郡天宁寺，继事东堂院龙溪祖信，后参无得通禅师得法。理宗淳祐初住建康府半山报宁禅寺。历住镇江府金山龙游禅寺、潭州鹿苑褒忠禅寺、抚州疏山白云禅寺、平江府承天能仁禅寺、临安府中天竺天宁万寿永祚禅寺、灵隠景德禅寺，终于径山兴圣万寿禅寺。元世祖至元十七年卒，年八十二。有净伏等编《虚舟普度禅师语录》一卷，收入《续藏经》。事见《语录》及所附元释行端撰《行状》，《补续高僧传》卷一一有传。　释普度诗，以辑自《语录》的偈颂及其中单编的诗编为一卷。辑自他书者附于卷末。"},"type":"诗","content":["李白桃红，桃红李白。","或雨或晴，或寒或热。"],"createTime":"2021-11-16 12:58:39","updateTime":"2021-11-16 12:58:39","valid":true},{"id":"r9mGVX0BI85dbDEsPZOT","title":"句  其九","author":{"name":"杨亿","time":"宋","desc":"杨亿（九七四～一○二一），字大年，建州浦城（今属福建）人。太宗雍熙元年（九八四）年十一，召试诗赋，授秘书省正字。淳化三年（九九二）赐进士及第（《宋会要辑稿》选举九之一），迁光禄寺丞。四年，直集贤院。至道二年（九九六）迁著作佐郎。真宗即位初，预修《太宗实录》。咸平元年（九九八）书成（《直斋书录解题》卷四），乞外补就养，知处州。三年，召还，拜左司谏。四年，知制诰（《武夷新集》自序）。景德二年（一○○五）与王钦若同修《册府元龟》（《直斋书录解题》卷一四）。三年，为翰林学士。大中祥符六年（一○一三）以太常少卿分司西京（《续资治通鉴长编》卷八○）。天禧二年（一○一八）拜工部侍郎。三年，权同知贡举，坐考成就差谬，降授秘书监。四年，复为翰林学士，十二月卒，年四十七。谥文（《宋会要辑稿》礼五八之三）。所著《括苍》、《武夷》、《颍阴》等集共一九四卷。传世有《武夷新集》二十卷，另编有《西昆酬唱集》二卷。《宋史》卷三○五有传。　杨亿诗，前五卷以影印文渊阁《四库全书》本《武夷新集》为底本。校以明刻本《杨大年先生武夷新集》（简称明刻本，藏北京大学图书馆）、清法式善编《宋元人诗集·武夷新集》存素堂抄本（简称法式抄本，藏北京图书馆）、清抄本《杨大年先生武夷新集》（简称清抄本，藏社会科学院文学研究所图书室），清嘉庆十六年祝昌泰留香室刻本《宋杨文公武夷新集》（简称祝刻本，藏科学院图书馆）。第六、第七卷以《四部丛刊》影印明嘉靖玩珠堂刊《西昆酬唱集》为底本，校以文渊阁《四库全书》所收本（简称四库本）和清康熙周桢、王图炜合注（简称周王合注本）等。另从《宋文鉴》、《会稽掇英总集》等书中辑得之集外诗，编为第八卷。"},"type":"诗","content":["江南堤柳拂人头，李白题诗徧酒楼。"],"createTime":"2021-11-16 12:59:20","updateTime":"2021-11-16 12:59:20","valid":true},{"id":"Ndl_VX0BI85dbDEsd0m1","title":"存目  其二","author":{"name":"苏轼","time":"宋","desc":"苏轼（一○三七～一一○一），字子瞻，一字和仲，自号东坡居士，眉山（今属四川）人。仁宗嘉祐二年（一○五七）进士。六年，试制科，授签书凤翔府节度判官厅事。英宗治平二年（一○六五），除判登闻鼓院，寻试馆职，除直史馆。三年，父洵卒，护丧归蜀。神宗熙宁二年（一○六九），服除，除判官告院兼判尚书祠部，权开封府推官。四年，通判杭州。历知密州、徐州。元丰二年（一○七九），移知湖州，乌台诗案狱起，贬黄州团练副使。四年，移汝州团练副使。八年春，得请常州居住，十月知登州。寻召除起居舍人。哲宗元祐元年（一○八六）迁中书舍人，改翰林学士。四年，知杭州。六年，除翰林学士承旨，寻知颍州。历知扬州、定州。绍圣元年（一○九四），贬惠州。四年，再贬儋州。徽宗即位，赦还，提举玉局观。建中靖国元年，卒于常州，年六十六（按：轼生于仁宗景祐三年十二月十九日，时已入公元一○三七年）。孝宗时谥文忠。有《东坡集》四十卷、《后集》二十卷、《和陶诗》四卷等。《宋史》卷三三八有传。　苏轼诗，卷一至卷四六，以清道光刊王文诰《苏文忠公诗编注集成》为底本，卷四七、四八，以清乾隆刊冯应榴《苏文忠诗合注》为底本。校以宋刊半叶十行本《东坡集》《东坡后集》（残，简称集甲）、宋刊半叶十二行本《东坡集》《东坡后集》（残，简称集乙，集甲、集乙合称集本）、宋眉山刊《苏文忠公文集》（残，简称集丙）、宋黄州刊《东坡先生后集》（残，简称集丁），宋刊《东坡先生和陶渊明诗》（简称集戊）、宋刊《集注东坡先生诗前集》（残，简称集注）、宋嘉泰刊施元之、顾禧《注东坡先生诗》（残，简称施甲）、宋景定补刊施、顾《注东坡先生诗》（残，简称施乙，施甲、施乙合称施本）、宋黄善夫家塾刊《王状元集百家注分类东坡先生诗》（简称类甲）、宋泉州刊《王状元集百家注分类东坡先生诗》（残，简称类乙）、元务本书堂刊《增刊校正王状元集注分类东坡先生诗》（简称类丙，类甲、类乙、类丙，合称类本）、明成化刊《东坡七集》（简称七集）、明万历刊《重编东坡先生外集》（简称外集）、清查慎行《补注东坡编年诗》（简称查注）、清冯应榴《苏文忠诗合注》（简称合注）。参校资料一为金石碑帖和著录金石诗文的专著的有关部分；一为清人、近人的苏诗校勘批语，其中有何焯所校清康熙刊《施注苏诗》（简称何校），卢文弨、纪昀所校清乾隆刊查注（分别简称卢校、纪校），章钰所校缪荃孙覆明成化《东坡七集》（简称章校）。卷四八所收诗篇除《重编东坡先生外集》外，还分别采自《春渚纪闻》、《侯鲭录》等书，亦据所采各书及有关资料进行校勘。新辑集外诗，编为第四九卷。起仁宗嘉祐四年己亥十月，公按：谓苏轼还朝，侍宫师按：谓苏洵自眉山发嘉陵，下夔、巫，十二月至荆州作。"},"type":"诗","content":["诗题：李白谪仙诗首句：我居青空里。"],"createTime":"2021-11-16 12:59:12","updateTime":"2021-11-16 12:59:12","valid":true},{"id":"ldl_VX0BI85dbDEsd0q2","title":"句  其二","author":{"name":"张舜民","time":"宋","desc":"张舜民，字芸叟，自号浮休居士，长安（今陕西西安）人。英宗治平二年（一○六五）进士，为襄乐令。神宗元丰中，应环庆帅高遵裕辟掌机宜文字。元丰六年（一○八三），因作《西征回途中》诗，贬监邕州盐米仓，改监郴州酒税。哲宗元祐初，以司马光荐，为监察御史，又因言事出通判虢州。元祐九年（一○九四），以秘书少监出使辽国，使回为陕西转运使，历知陕、潭、青三州，元符中罢。徽宗即位，召为右谏议大夫，旋出知定州，改同州。入元祐党籍，贬楚州团练副使、商州安置，后复集贤殿修撰，卒于政和中。著有《画墁集》，已佚。清四库馆臣据《永乐大典》所录，辑为八卷。《宋史》卷三四七有传。张舜民诗，以影印文渊阁《四库全书·画墁集》（其中诗四卷）为底本。校以鲍廷博刊《知不足斋丛书》本（简称鲍本）。四库所辑张舜民诗较草率，今又从《永乐大典》残本中辑得二十九题三十三首，编为第五卷。又《画墁集》卷七、卷八为《郴行录》，中有记行诗十二首，再益以自《全芳备祖》等书中所辑集外诗及断句，合编为第六卷。"},"type":"诗","content":["李白寻仙持玉杖，庾公对月踞胡床。"],"createTime":"2021-11-16 12:59:12","updateTime":"2021-11-16 12:59:12","valid":true},{"id":"ZNg2VX0BI85dbDEsfMub","title":"移松皆死","author":{"name":"王安石","time":"宋","desc":"王安石（一○二一～一○八六），字介甫，晚号半山，抚州临川（今属江西）人。仁宗庆历二年（一○四二）进士。历签书淮南判官、知鄞县、通判舒州，召为群牧判官。出知常州，移提点江东刑狱。嘉祐三年（一○五八），入为度支判官，献万言书极陈当世之务。六年，知制诰。英宗治平四年（一○六七），出知江宁府。寻召为翰林学士。神宗熙宁二年（一○六九），除参知政事，推行新法。次年，拜同中书门下平章事。七年，因新法迭遭攻击，辞相位，以观文殿学士知江宁府。八年，复相。九年，再辞，以镇南军节度使、同平章事判江宁府。十年，免府任，为集禧观使，居江宁钟山。元丰元年（一○七八），封舒国公。后改封荆。哲宗元祐元年卒，年六十六。赠太傅。绍圣中谥文。著有《临川集》一百卷、《唐百家诗选》二十卷、《新经周礼义》二十二卷（残）。另有《王氏日录》八十卷、《字说》二十卷、《老子注》二卷、《洪范传》一卷、《论语解》十卷，与子雱合著《新经诗义》三十卷，均佚。事见《名臣碑传琬琰集》下集卷一四《王荆公安石传》。《宋史》卷三二七有传。　王安石诗，有全集本和诗集李壁注本两个系统。今以明嘉靖三十九年吉阳何氏抚州覆宋绍兴中桐庐詹大和刊《临川先生文集》（《四部丛刊初编》影印，其中诗三十七卷，第三十八卷有六首四言诗）为底本。校以南宋龙舒刊《王文公文集》本（简称龙舒本），张元济影印季振宜旧本《王荆文公诗李雁湖笺注》本（张氏以为系元大德本，据今人考证，实明初刻本，简称张本），清缪氏小岯山房刊本（简称缪本），日本蓬左文库所藏朝鲜活字本（简称蓬左本）。校本多出底本的诗，以及从他书辑得的集外诗，分别编为第三十八、三十九、四十卷，各本多有与他人诗集互见或误收的诗，前人已多有指明。为谨慎计，凡本集各本已收的诗，仍全部收入，在诗题下加注或加按说明；《瀛奎律髓》误收的他人诗，入存目。"},"type":"诗","content":["李白今何在，桃红已索然。","君看赤松子，犹自不长年。"],"createTime":"2021-11-16 12:59:03","updateTime":"2021-11-16 12:59:03","valid":true},{"id":"fNccVX0BI85dbDEsnnx5","title":"句  其二","author":{"name":"赵汝回","time":"宋","desc":"赵汝回，字几道，永嘉（今浙江温州）人。太宗八世孙（《宋史》卷二二四《宗室世系》）。宁宗嘉定七年（一二一四）进士。历忠州判官（清雍正《浙江通志》卷一二四）。理宗绍定四年（一二三一）为会昌军使（明嘉靖《赣州府志》卷七）。淳祐九年（一二四九）监澉水镇（《澉水志》卷下）。官终主管进奏院（《两宋名贤小集》卷二二九）。有《东阁吟稿》等，已佚。　赵汝回诗，据《两宋名贤小集》、《江湖后集》等书所录，编为一卷。"},"type":"诗","content":["屈原一点沉湘恨，李白三生捉月身。"],"createTime":"2021-11-16 12:58:29","updateTime":"2021-11-16 12:58:29","valid":true},{"id":"n9u5VX0BI85dbDEsxHQF","title":"赠内","author":{"name":"李白","time":"唐","desc":"李白，字太白，陇西成纪人，凉武昭王暠九世孙。或曰山东人，或曰蜀人。白少有逸才，志气宏放，飘然有超世之心。初隐岷山，益州长史苏颋见而异之曰：“是子天才英特，可比相如。”天宝初，至长安，往见贺知章。知章见其文，叹曰：“子谪仙人也。”言于明皇，召见金銮殿，奏颂一篇。帝赐食，亲为调羹。有诏供奉翰林，白犹与酒徒饮于巿。帝坐沈香亭子，意有所感，欲得白为乐章，召入，而白已醉。左右以水颒面，稍解，援笔成文，婉丽精切。帝爱其才，数宴见。白常侍帝，醉，使高力士脱\uD86D\uDD87。力士素贵，耻之，摘其诗以激杨贵妃。帝欲官白，妃輙沮止。白自知不为亲近所容，恳求还山。帝赐金放还，乃浪迹江湖，终日沈饮。永王璘都督江陵，辟为僚佐。璘谋乱，兵败，白坐长流夜郎，会赦得还。族人阳冰为当涂令，白往依之。代宗立，以左拾遗召，而白已卒。文宗时，诏以白歌诗、裴旻劒舞、张旭草书为三绝云。集三十卷，今编诗二十五卷。"},"type":"诗","content":["三百六十日，日日醉如泥。","虽为李白妇，何异太常妻。"],"createTime":"2021-11-16 13:00:12","updateTime":"2021-11-16 13:00:12","valid":true},{"id":"INvKVX0BI85dbDEsRO4s","title":"偈颂一百二十三首  其六四","author":{"name":"释崇岳","time":"宋","desc":"释崇岳（一一三二～一二○二），号松源，俗姓吴，处州龙泉（今属浙江）人。二十三岁受戒于大明寺。首谒灵石妙禅师，继见大慧杲禅师于径山。孝宗隆兴二年（一一六四），得度于临安西湖白莲精舍，此后遍历江浙诸老宿之门。后入闽见乾元木庵永禅师，逾年，见密庵于衢之西山，从之移蒋山、华藏、径山。密庵迁灵隠，命为首座。不久出世于平江府阳山澂照寺。后徙江阴军君山报恩之光孝寺、无为军冶父山实际寺、饶州荐福寺、明州香山智度寺、平江府虎丘山云岩寺。宁宗庆元三年（一一九七），诏住临安府景德灵隠寺，居六年，道盛行，得法者众。嘉泰二年卒，年七十一。为南岳下十八世，密庵杰禅师法嗣。有《松源崇岳禅师语录》二卷，收入《续藏经》。事见《语录》及所附陆游撰《塔铭》。　崇岳诗，以辑自《语录》者编为一卷，以《语录》卷下单编之偈颂赞及他书所录编为另一卷。"},"type":"诗","content":["半雨半晴，桃红李白。","点著便行，不劳啗啄。"],"createTime":"2021-11-16 12:58:05","updateTime":"2021-11-16 12:58:05","valid":true},{"id":"9dzOVX0BI85dbDEsGyTy","title":"句","author":{"name":"李楫","time":"宋","desc":"李楫，仁宗景祐中知荆门军。事见民国《湖北通志》卷一一○。今录诗二首。"},"type":"诗","content":["令人却忆保宁寺，二水三山李白诗。"],"createTime":"2021-11-16 12:58:10","updateTime":"2021-11-16 12:58:10","valid":true},{"id":"4tmMVX0BI85dbDEsR9DV","title":"浮云楼","author":{"name":"张之才","time":"宋","desc":"张之才，字次文，辽（今山西左权）人。哲宗绍圣初，知泽州阳城县。事见《山堂肆考》卷七七、清雍正《山西通志》卷九六。今录诗二首。"},"type":"诗","content":["安州水西寺，李白旧题诗。","今古已堪叹，风烟独昔时。"],"createTime":"2021-11-16 12:59:30","updateTime":"2021-11-16 12:59:30","valid":true}],"pageable":{"sort":{"unsorted":true,"sorted":false,"empty":true},"pageNumber":0,"pageSize":10,"offset":0,"paged":true,"unpaged":false},"totalPages":41,"totalElements":404,"last":false,"sort":{"unsorted":true,"sorted":false,"empty":true},"numberOfElements":10,"first":true,"size":10,"number":0,"empty":false}}

【李%20白】的搜索结果为：
{"code":200,"mes":"success","data":{"content":[],"pageable":{"sort":{"unsorted":true,"sorted":false,"empty":true},"pageNumber":0,"pageSize":10,"offset":0,"paged":true,"unpaged":false},"totalPages":0,"totalElements":0,"last":true,"sort":{"unsorted":true,"sorted":false,"empty":true},"numberOfElements":0,"first":true,"size":10,"number":0,"empty":true}}

【W+】的搜索结果为：
{"code":200,"mes":"success","data":{"content":[],"pageable":{"sort":{"unsorted":true,"sorted":false,"empty":true},"pageNumber":0,"pageSize":10,"offset":0,"paged":true,"unpaged":false},"totalPages":0,"totalElements":0,"last":true,"sort":{"unsorted":true,"sorted":false,"empty":true},"numberOfElements":0,"first":true,"size":10,"number":0,"empty":true}}